Data Science for Biology Workshop Series
…
You can also state multiple conditions, separated by a comma. For example, filter(x > 5, y < 2) would pick all rows for which the value in the column x is greater than 5 and the value in the column y is less than 2. Note that the conditions are combined via logical and, both need to be satisfied for the row to be picked.

To try this out, pick all measurements at baseline for the placebo arm in table_02 :

table_02 %>%
  filter(time_point == ___, arm == ___)

Choosing data columns

The function select() allows you to pick specific data columns by name. This is frequently useful when a dataset has many more columns than we are interested in at the time. For example, if we are only interested in the participants’ education, and sex, we could select these three columns:

table_01 %>%
  select(education, sex)

# A tibble: 44 × 2
   education                     sex  
   <chr>                         <lgl>
 1 grade 10-12, matriculated     FALSE
 2 grade 10-12, matriculated     FALSE
 3 post-secondary                FALSE
 4 grade 10-12, not matriculated FALSE
 5 grade 10-12, matriculated     FALSE
 6 post-secondary                FALSE
 7 grade 10-12, not matriculated FALSE
 8 grade 10-12, not matriculated FALSE
 9 grade 10-12, not matriculated FALSE
10 less than grade 9             FALSE
# ℹ 34 more rows
…
We will be working with the dataset temperatures that we have used in previous worksheets. This dataset contains the average temperature for each day of the year for four different locations.

temperatures

# A tibble: 1,464 × 4
   location     day_of_year month temperature
   <fct>              <dbl> <chr>       <dbl>
 1 Death Valley           1 01           51  
 2 Death Valley           2 01           51.2
 3 Death Valley           3 01           51.3
 4 Death Valley           4 01           51.4
 5 Death Valley           5 01           51.6
 6 Death Valley           6 01           51.7
 7 Death Valley           7 01           51.9
 8 Death Valley           8 01           52  
 9 Death Valley           9 01           52.2
10 Death Valley          10 01           52.3
# ℹ 1,454 more rows

We will also be working with an aggregated version of this dataset called temps_months, which contains the mean temperature for each month for the same locations.

temps_months

# A tibble: 48 × 3
# Groups:   location [4]
   location  mean month
   <fct>    <dbl> <fct>
 1 Chicago   50.4 Apr  
 2 Chicago   74.1 Aug  
 3 Chicago   29   Dec  
 4 Chicago   28.9 Feb  
 5 Chicago   24.8 Jan  
 6 Chicago   75.8 Jul  
 7 Chicago   71.0 Jun  
 8 Chicago   38.8 Mar  
 9 Chicago   60.9 May  
10 Chicago   41.6 Nov  
# ℹ 38 more rows
…
