Data Science for Biology Workshop Series - Color Scales Exercise Solutions
…
We will be working with the dataset temperatures that we have used in previous worksheets. This dataset contains the average temperature for each day of the year for four different locations.

temperatures

# A tibble: 1,464 × 4
   location     day_of_year month temperature
   <fct>              <dbl> <chr>       <dbl>
 1 Death Valley           1 01           51  
 2 Death Valley           2 01           51.2
 3 Death Valley           3 01           51.3
 4 Death Valley           4 01           51.4
 5 Death Valley           5 01           51.6
 6 Death Valley           6 01           51.7
 7 Death Valley           7 01           51.9
 8 Death Valley           8 01           52  
 9 Death Valley           9 01           52.2
10 Death Valley          10 01           52.3
# ℹ 1,454 more rows

We will also be working with an aggregated version of this dataset called temps_months, which contains the mean temperature for each month for the same locations.

temps_months

# A tibble: 48 × 3
# Groups:   location [4]
   location  mean month
   <fct>    <dbl> <fct>
 1 Chicago   50.4 Apr  
 2 Chicago   74.1 Aug  
 3 Chicago   29   Dec  
 4 Chicago   28.9 Feb  
 5 Chicago   24.8 Jan  
 6 Chicago   75.8 Jul  
 7 Chicago   71.0 Jun  
 8 Chicago   38.8 Mar  
 9 Chicago   60.9 May  
10 Chicago   41.6 Nov  
# ℹ 38 more rows
…
