Data Science for Biology Workshop Series - Customizing data visualizations using colorspace, ggplot2, and patchwork
…
We will be working with the dataset temperatures that we have used in previous worksheets. This dataset contains the average temperature for each day of the year for four different locations.

temperatures

# A tibble: 1,464 × 4
   location     day_of_year month temperature
   <fct>              <dbl> <chr>       <dbl>
 1 Death Valley           1 01           51  
 2 Death Valley           2 01           51.2
 3 Death Valley           3 01           51.3
 4 Death Valley           4 01           51.4
 5 Death Valley           5 01           51.6
 6 Death Valley           6 01           51.7
 7 Death Valley           7 01           51.9
 8 Death Valley           8 01           52  
 9 Death Valley           9 01           52.2
10 Death Valley          10 01           52.3
# ℹ 1,454 more rows

We will also be working with an aggregated version of this dataset called temps_months, which contains the mean temperature for each month for the same locations.

temps_months

# A tibble: 48 × 3
# Groups:   location [4]
   location  mean month
   <fct>    <dbl> <fct>
 1 Chicago   50.4 Apr  
 2 Chicago   74.1 Aug  
 3 Chicago   29   Dec  
 4 Chicago   28.9 Feb  
 5 Chicago   24.8 Jan  
 6 Chicago   75.8 Jul  
 7 Chicago   71.0 Jun  
 8 Chicago   38.8 Mar  
 9 Chicago   60.9 May  
10 Chicago   41.6 Nov  
# ℹ 38 more rows
…
In this worksheet, we will discuss how to change and customize themes.

We will be using the R package tidyverse, which includes ggplot() and related functions. We will also be using the packages cowplot for themes and the package palmerpenguins for the penguins dataset.

# load required library
library(tidyverse)
library(cowplot)
library(palmerpenguins)

We will be working with the dataset penguins containing data on individual penguins on Antarctica.

penguins

# A tibble: 344 × 8
   species island    bill_length_mm bill_depth_mm flipper_length_mm body_mass_g
   <fct>   <fct>              <dbl>         <dbl>             <int>       <int>
 1 Adelie  Torgersen           39.1          18.7               181        3750
 2 Adelie  Torgersen           39.5          17.4               186        3800
 3 Adelie  Torgersen           40.3          18                 195        3250
 4 Adelie  Torgersen           NA            NA                  NA          NA
 5 Adelie  Torgersen           36.7          19.3               193        3450
 6 Adelie  Torgersen           39.3          20.6               190        3650
 7 Adelie  Torgersen           38.9          17.8               181        3625
 8 Adelie  Torgersen           39.2          19.6               195        4675
 9 Adelie  Torgersen           34.1          18.1               193        3475
10 Adelie  Torgersen           42            20.2               190        4250
# ℹ 334 more rows
# ℹ 2 more variables: sex <fct>, year <int>
…
